{
    "source": "mockoon:1.15.0",
    "data": [
        {
            "type": "environment",
            "item": {
                "uuid": "",
                "lastMigration": 17,
                "name": "Demo API",
                "endpointPrefix": "",
                "latency": 0,
                "port": 3000,
                "hostname": "0.0.0.0",
                "routes": [
                    {
                        "uuid": "",
                        "documentation": "Generate random body (JSON, text, CSV, etc) with templating",
                        "method": "get",
                        "endpoint": "examenes",
                        "responses": [
                            {
                                "uuid": "",
                                "body": "[\n   {\n      \"id\":\"1\",\n      \"examen\":\"Examen de religion -  Orígenes del mito universal\",\n      \"actions\":\"responder\"\n   },\n   {\n      \"id\":\"2\",\n      \"examen\":\"Examen de matematicas - Ecuaciones logarítmicas\",\n      \"actions\":\"responder\"\n   },\n   {\n      \"id\":\"3\",\n      \"examen\":\"Examen de religion\",\n      \"actions\":\"responder\"\n   },\n   {\n      \"id\":\"4\",\n      \"examen\":\"Examen de matematicas\",\n      \"actions\":\"responder\"\n   },\n   {\n      \"id\":\"5\",\n      \"examen\":\"Examen de religion\",\n      \"actions\":\"responder\"\n   },\n   {\n      \"id\":\"6\",\n      \"examen\":\"Examen de matematicas\",\n      \"actions\":\"responder\"\n   }\n]",
                                "latency": 0,
                                "statusCode": 200,
                                "label": "Listado de examenes",
                                "headers": [],
                                "filePath": "",
                                "sendFileAsBody": false,
                                "rules": [],
                                "rulesOperator": "OR",
                                "disableTemplating": false,
                                "fallbackTo404": false
                            }
                        ],
                        "enabled": true,
                        "randomResponse": false,
                        "sequentialResponse": false
                    },
                    {
                        "uuid": "",
                        "documentation": "Generate random body (JSON, text, CSV, etc) with templating",
                        "method": "get",
                        "endpoint": "quiz/:id",
                        "responses": [
                            {
                                "uuid": "",
                                "body": "[\n   {\n      \"pregunta\":\"Html es un lenguaje de programacion?\",\n      \"type\":\"radio\",\n      \"validators\":\"falso\",\n      \"options\":\"verdadero,falso\",\n      \"id\":\"1\"\n   },\n   {\n      \"pregunta\":\"¿Cuál de las siguientes palabras, NO es una palabra reservada de ANSI-SQL?\",\n      \"type\":\"checkbox\",\n      \"validators\":\"over\",\n      \"options\":\"distinct,over,from\",\n      \"id\":\"2\"\n   },\n   {\n      \"pregunta\":\"¿Cual es el comparador que se usa en Python cuándo queremos saber si la referencia de dos variables es el mismo objeto?\",\n      \"validators\":\"==\",\n      \"type\":\"text\",\n      \"id\":\"3\"\n   },\n   {\n      \"pregunta\":\"¿Cual es el comparador que se usa en Python cuándo queremos saber si la referencia de dos variables es el mismo objeto?\",\n      \"type\":\"text\",\n      \"validators\":\"==\",\n      \"id\":\"4\"\n   },\n   {\n      \"pregunta\":\"¿Cual es el comparador que se usa en Python cuándo queremos saber si la referencia de dos variables es el mismo objeto?\",\n      \"validators\":\"==\",\n      \"type\":\"text\",\n      \"id\":\"5\"\n   }\n]",
                                "latency": 0,
                                "statusCode": 200,
                                "label": "Listado de examenes",
                                "headers": [],
                                "filePath": "",
                                "sendFileAsBody": false,
                                "rules": [],
                                "rulesOperator": "OR",
                                "disableTemplating": false,
                                "fallbackTo404": false
                            }
                        ],
                        "enabled": true,
                        "randomResponse": false,
                        "sequentialResponse": true
                    }
                ],
                "proxyMode": false,
                "proxyHost": "",
                "proxyRemovePrefix": false,
                "https": false,
                "cors": true,
                "headers": [
                    {
                        "key": "Content-Type",
                        "value": "application/json"
                    }
                ],
                "proxyReqHeaders": [
                    {
                        "key": "",
                        "value": ""
                    }
                ],
                "proxyResHeaders": [
                    {
                        "key": "",
                        "value": ""
                    }
                ]
            }
        }
    ]
}