[
  {
    "name": "html",
    "pregunta" : "Html es un lenguaje de programacion?",
    "type": "radio",
    "validators": "falso",
    "options": "['verdadero', 'falso']",
    "id": "1"
  },
  {
    "name": "ansi-sql",
    "pregunta" : "¿Cuál de las siguientes palabras, NO es una palabra reservada de ANSI-SQL?",
    "type": "checkbox",
    "validators": "over",
    "options": "['distinct', 'over', 'from']",
    "id": "2"
  },
  {
    "name": "pyton",
    "pregunta" : "¿Cual es el comparador que se usa en Python cuándo queremos saber si la referencia de dos variables es el mismo objeto?",
    "validators": "==",
    "type": "text",
    "id": "3"
  }
]
